<?xml version="1.0" encoding="utf-8"?>
<!-- Generator: Adobe Illustrator 19.2.0, SVG Export Plug-In . SVG Version: 6.00 Build 0)  -->
<svg version="1.1" id="Layer_1" xmlns="http://www.w3.org/2000/svg" xmlns:xlink="http://www.w3.org/1999/xlink" x="0px" y="0px"
	 viewBox="0 0 296 192" style="enable-background:new 0 0 296 192;" xml:space="preserve">
<style type="text/css">
	.st0{fill:#CAA6A6;}
	.st1{fill:#CA3710;}
	.st2{fill:#272525;}
	.st3{fill:#FFFFFF;}
	.st4{fill:#D0D1D3;}
	.st5{fill:#A6A8AA;}
	.st6{fill:#FFEDB5;}
	.st7{fill:#FEE187;}
	.st8{fill:#808183;}
	.st9{fill:#59595B;}
</style>
<title>noticias-header</title>
<polyline class="st0" points="296,192 160.7,192 160.7,192 296,192 "/>
<polyline class="st1" points="158.1,40.2 129.9,81.8 116.8,68.7 69.6,90.5 101.4,122.4 95.6,126.9 160.7,192 296,192 296,178.1 
	158.1,40.2 "/>
<path class="st2" d="M107,128.3h-8.1c-2.2,0-4.1-1.6-4.5-3.8l-5.3-28.6c-0.5-2.5,1.2-4.9,3.7-5.3c0.3-0.1,0.5-0.1,0.8-0.1h8.1
	c2.2,0,4.1,1.6,4.5,3.8l5.3,28.6c0.5,2.5-1.2,4.9-3.7,5.3C107.5,128.3,107.3,128.3,107,128.3z"/>
<polygon class="st3" points="156.9,108.5 114.2,95.7 114.2,56.4 156.9,43.6 "/>
<polygon class="st4" points="114.2,76.2 114.2,95.7 156.9,108.5 156.9,76.2 "/>
<path class="st4" d="M156.4,112.4L156.4,112.4c-1.7,0-3.1-1.4-3.1-3.1c0,0,0,0,0,0V42.8c0-1.7,1.4-3.1,3.1-3.1l0,0l0,0
	c1.7,0,3.1,1.4,3.1,3.1v0v66.5C159.5,111,158.1,112.4,156.4,112.4L156.4,112.4z"/>
<path class="st5" d="M153.3,76.2v33.1c0,1.7,1.4,3.1,3.1,3.1c1.7,0,3.1-1.4,3.1-3.1V76.2H153.3z"/>
<path class="st6" d="M75.5,93h13.3V59.1H75.5c-4.6,0-8.4,3.7-8.4,8.4l0,0v17.1C67.1,89.2,70.9,93,75.5,93C75.5,93,75.5,93,75.5,93z"
	/>
<path class="st7" d="M67.2,76.2v8.4c0,4.6,3.7,8.4,8.3,8.4c0,0,0,0,0,0h13.3V76.2H67.2z"/>
<path class="st8" d="M114.2,95.7H88.3c-2,0-3.6-1.6-3.6-3.6l0,0V60c0-2,1.6-3.6,3.6-3.6l0,0h25.9L114.2,95.7L114.2,95.7z"/>
<path class="st9" d="M84.7,76.2v16c0,2,1.6,3.6,3.6,3.6l0,0h25.9V76.2H84.7z"/>
</svg>
